0	0	1	0	628877383
2	0	-1	0	127401064
2	0	0	0	65830943
0	0	2	0	21361825
0	1	0	0	-18511586
0	0	0	2	-11433213
2	0	-2	0	5879321
2	-1	-1	0	5706551
2	0	1	0	5332117
2	-1	0	0	4575729
0	1	-1	0	-4092258
1	0	0	0	-3471892
0	1	1	0	-3038341
2	0	0	-2	1532696
0	0	1	2	-1252767
0	0	1	-2	1098147
4	0	-1	0	1067495
0	0	3	0	1003439
4	0	-2	0	854794
2	1	-1	0	-788808
2	1	0	0	-676617
1	0	-1	0	-516242
1	1	0	0	498735
2	-1	1	0	403619
2	0	2	0	399436
4	0	0	0	386085
2	0	-3	0	366502
0	1	-2	0	-268863
2	0	-1	2	-260163
2	-1	-2	0	239043
1	0	1	0	-234808
2	-2	0	0	223616
0	1	2	0	-211949
0	2	0	0	-206875
2	-2	-1	0	204755
2	0	1	-2	-177310
2	0	0	2	-159489
4	-1	-1	0	121500
0	0	2	2	-111045
3	0	-1	0	-89158
2	1	1	0	-80959
4	-1	-2	0	75886
0	2	-1	0	-71332
2	2	-1	0	-70033
2	1	-2	0	69136
2	-1	0	-2	59613
4	0	1	0	54937
0	0	4	0	53713
4	-1	0	0	51966
1	0	-2	0	-48694
2	1	0	-2	-39921
0	0	2	-2	-38127
1	1	1	0	35051
3	0	-2	0	-34003
4	0	-3	0	32968
2	-1	2	0	32694
0	2	1	0	-32269
1	1	-1	0	29936
2	0	3	0	29431
2	0	1	2	-27506
2	0	-4	0	26341
2	-2	1	0	20880
0	1	-3	0	-18594
4	1	-1	0	-17645
1	0	2	0	-16222
1	0	0	-2	-16203
6	0	-2	0	15877
2	0	-2	-2	-15573
1	-1	0	0	-15470
0	1	3	0	-15164
2	0	-2	2	-14881
2	-1	-3	0	13289
2	0	2	-2	-12605
2	-1	-1	2	-11839
0	0	0	4	11676
0	1	0	2	11483
3	0	0	0	11229
6	0	-1	0	10959
2	-1	0	2	-10615
2	-1	1	-2	-10403
4	1	-2	0	-9933
1	1	-2	0	9713
2	-3	0	0	9439
0	0	3	2	-9129
4	-2	-1	0	8576
0	1	-1	-2	8376
4	0	-1	-2	8357
2	-2	-2	0	8172
6	0	-3	0	8126
2	1	2	0	-8062
4	1	0	0	-8031
4	-1	1	0	7847
3	1	-1	0	7604
0	1	1	2	7316
1	0	0	2	7064
3	0	0	-2	-7029
2	2	-2	0	-6941
2	-3	-1	0	6859
3	-1	-1	0	-6428
4	0	2	0	6070
4	0	-1	2	-5593
0	2	-2	0	-5364
2	2	0	0	-5160
2	0	-1	-2	4973
2	1	-3	0	4895
4	0	-2	2	-4716
4	-2	-2	0	4383
4	-2	0	0	4229
3	1	0	0	4164
1	-1	-1	0	-3788
1	0	-3	0	-3559
6	0	0	0	3504
2	0	2	2	-3441
1	-1	1	0	-3354
0	0	5	0	3083
0	3	0	0	-2815
4	-1	-3	0	2773
2	-1	3	0	2589
1	1	2	0	2557
2	0	-3	-2	-2543
0	0	1	4	2526
6	-1	-2	0	2509
4	0	0	2	-2361
2	1	1	-2	2353
3	-1	-2	0	-2309
0	1	1	-2	-2301
0	1	-1	2	-2236
0	0	1	-4	-2228
2	0	4	0	2157
2	0	0	-4	-2088
0	1	0	-2	2084
2	-1	1	2	-2048
6	-1	-1	0	1984
2	0	-5	0	1903
2	1	-1	2	1873
4	0	1	-2	-1834
2	1	0	2	1817
0	2	2	0	-1809
3	-1	0	0	1808
2	-2	2	0	1789
2	-2	0	-2	1754
2	-1	-1	-2	-1695
5	0	-2	0	-1590
0	0	3	-2	-1579
0	1	-2	-2	1435
0	3	-1	0	-1428
4	1	1	0	-1408
0	1	-4	0	-1306
1	0	1	2	1236
3	0	-3	0	-1234
0	1	2	2	1205
1	-2	0	0	1196
3	1	-2	0	-1164
1	0	3	0	-1132
1	0	1	-2	-1114
1	2	0	0	-1102
0	1	4	0	-1096
6	-1	-3	0	1083
1	1	0	2	-996
4	2	-2	0	-976
2	0	3	-2	-927
2	-3	1	0	917
4	-1	2	0	909
3	0	-1	-2	-828
2	-1	-4	0	819
2	-1	2	-2	-802
2	-1	-2	-2	-779
4	1	-3	0	745
0	1	2	-2	744
2	1	3	0	-743
0	0	4	2	-723
6	-1	0	0	697
0	1	-2	2	675
4	-2	1	0	670
4	0	0	-2	-664
1	0	-1	-2	-661
2	2	0	-2	-653
1	1	-3	0	638
4	-1	-1	-2	636
6	0	1	0	635
END
